[
{
"acceleration": 2.0000000000000004,
"curvature": 0.0,
"pose": {
"rotation": {
"radians": 0.0
},
"translation": {
"x": 9.022708516955863,
"y": 7.937709615379077
}
},
"time": 0.0,
"velocity": 0.0
},
{
"acceleration": 1.9999999999999996,
"curvature": -0.6927433127909572,
"pose": {
"rotation": {
"radians": -0.023151751235378396
},
"translation": {
"x": 9.087055435398138,
"y": 7.937203938524857
}
},
"time": 0.25367086030581987,
"velocity": 0.5073417206116398
},
{
"acceleration": 2.0,
"curvature": -1.2111230528885566,
"pose": {
"rotation": {
"radians": -0.08585001208964554
},
"translation": {
"x": 9.151706769727866,
"y": 7.933858465486458
}
},
"time": 0.3592864315622215,
"velocity": 0.7185728631244431
},
{
"acceleration": 2.0000000000000018,
"curvature": -1.3937264250492065,
"pose": {
"rotation": {
"radians": -0.12861037019027008
},
"translation": {
"x": 9.184231115316383,
"y": 7.930373826667364
}
},
"time": 0.40224025644750516,
"velocity": 0.8044805128950104
},
{
"acceleration": 2.0,
"curvature": -1.5200019829069038,
"pose": {
"rotation": {
"radians": -0.17697168329437687
},
"translation": {
"x": 9.216927834970589,
"y": 7.925350471082702
}
},
"time": 0.441449401664225,
"velocity": 0.8828988033284503
},
{
"acceleration": 1.9999999999999984,
"curvature": -1.5888361673417528,
"pose": {
"rotation": {
"radians": -0.22934595361021193
},
"translation": {
"x": 9.24982377273745,
"y": 7.918580481408465
}
},
"time": 0.4779779497686941,
"velocity": 0.9559558995373885
},
{
"acceleration": 1.999999999999997,
"curvature": -1.6027344291621197,
"pose": {
"rotation": {
"radians": -0.2841456337454013
},
"translation": {
"x": 9.282943381060306,
"y": 7.909886645802068
}
},
"time": 0.5125471488413799,
"velocity": 1.02509429768276
},
{
"acceleration": 2.0,
"curvature": -1.5679962755498864,
"pose": {
"rotation": {
"radians": -0.3398615532293901
},
"translation": {
"x": 9.316308792636185,
"y": 7.899121266403375
}
},
"time": 0.5456773139783054,
"velocity": 1.091354627956611
},
{
"acceleration": 2.000000000000003,
"curvature": -1.493931333173442,
"pose": {
"rotation": {
"radians": -0.3951408830873539
},
"translation": {
"x": 9.349939892273085,
"y": 7.8861649678357315
}
},
"time": 0.5777579213322293,
"velocity": 1.1555158426644587
},
{
"acceleration": 1.9999999999999971,
"curvature": -1.391419530826542,
"pose": {
"rotation": {
"radians": -0.4488480636268112
},
"translation": {
"x": 9.383854388747286,
"y": 7.870925505706998
}
},
"time": 0.6090856399030389,
"velocity": 1.218171279806078
},
{
"acceleration": 2.0,
"curvature": -1.2713267755008113,
"pose": {
"rotation": {
"radians": -0.5000978354044647
},
"translation": {
"x": 9.418067886660651,
"y": 7.853336575110582
}
},
"time": 0.6398868853186962,
"velocity": 1.2797737706373926
},
{
"acceleration": 1.9999999999999973,
"curvature": -1.1432338465990715,
"pose": {
"rotation": {
"radians": -0.548258307646105
},
"translation": {
"x": 9.45259395829792,
"y": 7.83335661912647
}
},
"time": 0.6703325139769865,
"velocity": 1.3406650279539731
},
{
"acceleration": 2.0000000000000027,
"curvature": -1.0147097392546123,
"pose": {
"rotation": {
"radians": -0.5929294388419598
},
"translation": {
"x": 9.48744421548401,
"y": 7.81096763732226
}
},
"time": 0.700548341824356,
"velocity": 1.4010966836487122
},
{
"acceleration": 2.0,
"curvature": -0.7758250811079893,
"pose": {
"rotation": {
"radians": -0.6711350252819512
},
"translation": {
"x": 9.558154362647034,
"y": 7.759001227968176
}
},
"time": 0.7606050802573837,
"velocity": 1.5212101605147679
},
{
"acceleration": 1.9999999999999978,
"curvature": -0.5758744492277297,
"pose": {
"rotation": {
"radians": -0.7346490270217474
},
"translation": {
"x": 9.630254744130076,
"y": 7.697719196380552
}
},
"time": 0.8204543951749877,
"velocity": 1.640908790349976
},
{
"acceleration": 2.0,
"curvature": -0.41683566546247475,
"pose": {
"rotation": {
"radians": -0.7846308264528155
},
"translation": {
"x": 9.703775007423564,
"y": 7.627704039759436
}
},
"time": 0.8801537029791028,
"velocity": 1.7603074059582058
},
{
"acceleration": 1.999999999999998,
"curvature": -0.29239622765260653,
"pose": {
"rotation": {
"radians": -0.8226274609352365
},
"translation": {
"x": 9.778720330961615,
"y": 7.5498007752057426
}
},
"time": 0.939558965866931,
"velocity": 1.8791179317338622
},
{
"acceleration": 1.9999999999999962,
"curvature": -0.19423018147404994,
"pose": {
"rotation": {
"radians": -0.850122173612595
},
"translation": {
"x": 9.855073723555625,
"y": 7.465078811754271
}
},
"time": 0.9984098069566374,
"velocity": 1.9968196139132748
},
{
"acceleration": 2.0,
"curvature": -0.11460205277314296,
"pose": {
"rotation": {
"radians": -0.8683384148709075
},
"translation": {
"x": 9.932798323827885,
"y": 7.374793822406744
}
},
"time": 1.0563874250402567,
"velocity": 2.112774850080513
},
{
"acceleration": 2.0000000000000036,
"curvature": -0.04704716739853315,
"pose": {
"rotation": {
"radians": -0.8781782414667458
},
"translation": {
"x": 10.011839699645176,
"y": 7.280349616164826
}
},
"time": 1.1131530757268373,
"velocity": 2.226306151453674
},
{
"acceleration": 1.9999999999999931,
"curvature": 0.013736294265446683,
"pose": {
"rotation": {
"radians": -0.8802191098382807
},
"translation": {
"x": 10.092128147552376,
"y": 7.18326001006316
}
},
"time": 1.1683733916458579,
"velocity": 2.3367467832917153
},
{
"acceleration": 1.9999999999999931,
"curvature": 0.04301331385911471,
"pose": {
"rotation": {
"radians": -0.8784104320860241
},
"translation": {
"x": 10.13271463133412,
"y": 7.134216947155391
}
},
"time": 1.1953056141212433,
"velocity": 2.390611228242486
},
{
"acceleration": 1.9999999999999931,
"curvature": 0.07223966118404376,
"pose": {
"rotation": {
"radians": -0.8747295852038586
},
"translation": {
"x": 10.173580992206059,
"y": 7.085110701202391
}
},
"time": 1.2217372856657842,
"velocity": 2.443474571331568
},
{
"acceleration": 2.000000000000007,
"curvature": 0.10191250364352783,
"pose": {
"rotation": {
"radians": -0.8691647141313388
},
"translation": {
"x": 10.214715246143543,
"y": 7.03614446023247
}
},
"time": 1.2476349268724023,
"velocity": 2.495269853744804
},
{
"acceleration": 1.9999999999999964,
"curvature": 0.13252315902233675,
"pose": {
"rotation": {
"radians": -0.8616866213799622
},
"translation": {
"x": 10.256104885808105,
"y": 6.987521138782196
}
},
"time": 1.272967745910073,
"velocity": 2.5459354918201456
},
{
"acceleration": 2.0000000000000036,
"curvature": 0.19854069841111038,
"pose": {
"rotation": {
"radians": -0.8407895517413175
},
"translation": {
"x": 10.339598107539295,
"y": 6.892106396134313
}
},
"time": 1.3218299682919357,
"velocity": 2.643659936583871
},
{
"acceleration": -0.10915198840717005,
"curvature": 0.27435637070509444,
"pose": {
"rotation": {
"radians": -0.8114741055898612
},
"translation": {
"x": 10.423952862992925,
"y": 6.800439042755572
}
},
"time": 1.3681404358535274,
"velocity": 2.7362808717070544
},
{
"acceleration": -1.6217132895204878,
"curvature": 0.3641576193205158,
"pose": {
"rotation": {
"radians": -0.772937703051349
},
"translation": {
"x": 10.509057583608396,
"y": 6.714011016340916
}
},
"time": 1.412508326790327,
"velocity": 2.7314380281898702
},
{
"acceleration": -1.9232947653006816,
"curvature": 0.4718676426871663,
"pose": {
"rotation": {
"radians": -0.7241979550191661
},
"translation": {
"x": 10.594799226104826,
"y": 6.634195494816437
}
},
"time": 1.4559550960320757,
"velocity": 2.660979825123796
},
{
"acceleration": -2.0,
"curvature": 0.6000111092566526,
"pose": {
"rotation": {
"radians": -0.6642210088008421
},
"translation": {
"x": 10.681065571914653,
"y": 6.5622087683723995
}
},
"time": 1.4988435536014881,
"velocity": 2.578492679188725
},
{
"acceleration": -2.0,
"curvature": 0.7473978971853664,
"pose": {
"rotation": {
"radians": -0.5921715787502373
},
"translation": {
"x": 10.767747526617235,
"y": 6.4990721114962735
}
},
"time": 1.5411263503396158,
"velocity": 2.49392708571247
},
{
"acceleration": -1.932843241760311,
"curvature": 0.9055008764239714,
"pose": {
"rotation": {
"radians": -0.5078363894840712
},
"translation": {
"x": 10.854741419372452,
"y": 6.4455736550057585
}
},
"time": 1.5827722599738367,
"velocity": 2.410635266444028
},
{
"acceleration": -1.747612832214591,
"curvature": 0.9829312839749408,
"pose": {
"rotation": {
"radians": -0.46131022537001676
},
"translation": {
"x": 10.898324994268803,
"y": 6.422611909509064
}
},
"time": 1.6033778610399114,
"velocity": 2.370807869681056
},
{
"acceleration": -1.4754213398595803,
"curvature": 1.054714421904086,
"pose": {
"rotation": {
"radians": -0.4122219479731671
},
"translation": {
"x": 10.941951302354319,
"y": 6.4022302580818184
}
},
"time": 1.6238428244853893,
"velocity": 2.3350430369529365
},
{
"acceleration": -1.1140536088515292,
"curvature": 1.11660283515041,
"pose": {
"rotation": {
"radians": -0.36099299758387526
},
"translation": {
"x": 10.985609934122538,
"y": 6.384444666558819
}
},
"time": 1.644162347990281,
"velocity": 2.305063178358041
},
{
"acceleration": -0.6664424693322607,
"curvature": 1.1640368356101516,
"pose": {
"rotation": {
"radians": -0.3081871959529984
},
"translation": {
"x": 11.029291250184574,
"y": 6.3692493803017
}
},
"time": 1.6643246017080697,
"velocity": 2.282601346841158
},
{
"acceleration": -0.13998871148514594,
"curvature": 1.192606688191012,
"pose": {
"rotation": {
"radians": -0.25450729320785065
},
"translation": {
"x": 11.072986453126433,
"y": 6.35661573269995
}
},
"time": 1.68430970800366,
"velocity": 2.2692824232516573
},
{
"acceleration": 0.45509223677643035,
"curvature": 1.1985884238937907,
"pose": {
"rotation": {
"radians": -0.20077795950545008
},
"translation": {
"x": 11.116687659366294,
"y": 6.346490953671971
}
},
"time": 1.7040895840696373,
"velocity": 2.2665134638878452
},
{
"acceleration": 1.1082589647896146,
"curvature": 1.179430703062122,
"pose": {
"rotation": {
"radians": -0.14791587084508911
},
"translation": {
"x": 11.16038797101183,
"y": 6.338796978166071
}
},
"time": 1.7236286607942382,
"velocity": 2.27540554601899
},
{
"acceleration": 1.8118008692386685,
"curvature": 1.134056773936784,
"pose": {
"rotation": {
"radians": -0.09689066413560612
},
"translation": {
"x": 11.204081547717491,
"y": 6.333429254661539
}
},
"time": 1.7428852597348765,
"velocity": 2.296746844426311
},
{
"acceleration": 2.00000000000001,
"curvature": 1.0628848591980569,
"pose": {
"rotation": {
"radians": -0.048683139692478936
},
"translation": {
"x": 11.247763678541814,
"y": 6.330255553669648
}
},
"time": 1.7618132126914539,
"velocity": 2.331040526045946
},
{
"acceleration": 2.000000000000005,
"curvature": 0.9675514840240477,
"pose": {
"rotation": {
"radians": -0.004248162560566863
},
"translation": {
"x": 11.291430853804718,
"y": 6.329114776234698
}
},
"time": 1.7804042439665604,
"velocity": 2.368222588596159
},
{
"acceleration": 2.000000000000005,
"curvature": 0.7139270263224711,
"pose": {
"rotation": {
"radians": 0.06975415702129366
},
"translation": {
"x": 11.378712736376672,
"y": 6.33213609988413
}
},
"time": 1.816724724418917,
"velocity": 2.4408635495008726
},
{
"acceleration": 2.0,
"curvature": 0.3900954141880993,
"pose": {
"rotation": {
"radians": 0.11859157083626568
},
"translation": {
"x": 11.465925873797797,
"y": 6.340581767663961
}
},
"time": 1.8521093521201262,
"velocity": 2.5116328049032908
},
{
"acceleration": 1.999999999999995,
"curvature": -8.932914003796403e-15,
"pose": {
"rotation": {
"radians": 0.13624739720057522
},
"translation": {
"x": 11.553092763481889,
"y": 6.352002154222763
}
},
"time": 1.8866365776319445,
"velocity": 2.5806872559269274
},
{
"acceleration": 2.0,
"curvature": -0.07708392889833181,
"pose": {
"rotation": {
"radians": 0.13261472351550221
},
"translation": {
"x": 11.640687111536002,
"y": 6.363899819740982
}
},
"time": 1.9204475270578083,
"velocity": 2.648309154778655
},
{
"acceleration": 2.000000000000005,
"curvature": -0.12109867716874835,
"pose": {
"rotation": {
"radians": 0.12334660460680395
},
"translation": {
"x": 11.730725845697693,
"y": 6.375516770783661
}
},
"time": 1.9542953080137915,
"velocity": 2.7160047166906214
},
{
"acceleration": 2.0,
"curvature": -0.1342285446926888,
"pose": {
"rotation": {
"radians": 0.11098888115894225
},
"translation": {
"x": 11.825186238897178,
"y": 6.386645183788216
}
},
"time": 1.9888747464598773,
"velocity": 2.785163593582793
},
{
"acceleration": 1.5552827505329174,
"curvature": -0.12652574108198167,
"pose": {
"rotation": {
"radians": 0.09770552557534935
},
"translation": {
"x": 11.925568015300295,
"y": 6.397151158402284
}
},
"time": 2.0246535898433677,
"velocity": 2.856721280349774
},
{
"acceleration": 0.4243291196080684,
"curvature": -0.10822771924255302,
"pose": {
"rotation": {
"radians": 0.08500512833911175
},
"translation": {
"x": 12.03292858248051,
"y": 6.406968563919438
}
},
"time": 2.0620122125863025,
"velocity": 2.914824501885527
},
{
"acceleration": 0.3967675386864338,
"curvature": -0.0864550539541792,
"pose": {
"rotation": {
"radians": 0.07378092852878859
},
"translation": {
"x": 12.147918263590936,
"y": 6.416092885714897
}
},
"time": 2.101472820352485,
"velocity": 2.9315687868381506
},
{
"acceleration": 0.3578285511487877,
"curvature": -0.06508125531614503,
"pose": {
"rotation": {
"radians": 0.06447669354285257
},
"translation": {
"x": 12.270815529536337,
"y": 6.424575071681236
}
},
"time": 2.1433757426150897,
"velocity": 2.9481945061680532
},
{
"acceleration": 0.32955041492953624,
"curvature": -0.05510825727574448,
"pose": {
"rotation": {
"radians": 0.060603202213070945
},
"translation": {
"x": 12.335223521048068,
"y": 6.428604936123293
}
},
"time": 2.165236050589863,
"velocity": 2.9560167484983326
},
{
"acceleration": 0.3022810585021316,
"curvature": -0.04572291819341049,
"pose": {
"rotation": {
"radians": 0.057257703215360965
},
"translation": {
"x": 12.401562231145146,
"y": 6.432515378664096
}
},
"time": 2.18768883140526,
"velocity": 2.9634160717323685
},
{
"acceleration": 0.27717314477549077,
"curvature": -0.036936329161633606,
"pose": {
"rotation": {
"radians": 0.05443870587634836
},
"translation": {
"x": 12.46977757457242,
"y": 6.436325626364127
}
},
"time": 2.210716824688189,
"velocity": 2.9703769979171124
},
{
"acceleration": 0.25485993064230344,
"curvature": -0.028723598910408685,
"pose": {
"rotation": {
"radians": 0.052141084180598804
},
"translation": {
"x": 12.539798831341468,
"y": 6.440057218897897
}
},
"time": 2.2342975209774556,
"velocity": 2.976912933663604
},
{
"acceleration": 0.235635661552728,
"curvature": -0.021036652098184293,
"pose": {
"rotation": {
"radians": 0.05035785937910265
},
"translation": {
"x": 12.611539747735975,
"y": 6.443733816255062
}
},
"time": 2.258403370661116,
"velocity": 2.9830565488420557
},
{
"acceleration": 0.21958653270277947,
"curvature": -0.013813213203564429,
"pose": {
"rotation": {
"radians": 0.0490815573410888
},
"translation": {
"x": 12.684899637317104,
"y": 6.4473810064415416
}
},
"time": 2.2830020345246314,
"velocity": 2.9888528712748483
},
{
"acceleration": 0.20668301750350732,
"curvature": -0.006982855179947969,
"pose": {
"rotation": {
"radians": 0.04830523430249127
},
"translation": {
"x": 12.759764481928878,
"y": 6.451026113180635
}
},
"time": 2.3080566668121256,
"velocity": 2.9943545311070023
},
{
"acceleration": -0.16649695824194358,
"curvature": -0.0004708550954769147,
"pose": {
"rotation": {
"radians": 0.04802325085510688
},
"translation": {
"x": 12.83600803270355,
"y": 6.454698003614135
}
},
"time": 2.333526223091405,
"velocity": 2.999618655853279
},
{
"acceleration": -0.18727275445495883,
"curvature": 0.005799555273377351,
"pose": {
"rotation": {
"radians": 0.048231860032983416
},
"translation": {
"x": 12.913492911066983,
"y": 6.458426896003443
}
},
"time": 2.3594062825886843,
"velocity": 2.9953097046678616
},
{
"acceleration": -0.18157559565247466,
"curvature": 0.01190609918991081,
"pose": {
"rotation": {
"radians": 0.04892966263632008
},
"translation": {
"x": 12.99207170974402,
"y": 6.462244167430688
}
},
"time": 2.385692767800704,
"velocity": 2.990386962177267
},
{
"acceleration": -0.1787662672740455,
"curvature": 0.01792720156637017,
"pose": {
"rotation": {
"radians": 0.050117972083190125
},
"translation": {
"x": 13.071588093763863,
"y": 6.466182161499841
}
},
"time": 2.412337577637423,
"velocity": 2.985548914960118
},
{
"acceleration": -1.1365710928693946,
"curvature": 0.023942346210792918,
"pose": {
"rotation": {
"radians": 0.051801122206772354
},
"translation": {
"x": 13.151877901465447,
"y": 6.470273996037829
}
},
"time": 2.4392870350669438,
"velocity": 2.9807312610503818
},
{
"acceleration": -1.9999999999999891,
"curvature": 0.030032893095581808,
"pose": {
"rotation": {
"radians": 0.05398674438196976
},
"translation": {
"x": 13.232770245502818,
"y": 6.474553370795656
}
},
"time": 2.466605692271427,
"velocity": 2.949681664975758
},
{
"acceleration": -2.0,
"curvature": 0.03628326284369729,
"pose": {
"rotation": {
"radians": 0.05668603492123552
},
"translation": {
"x": 13.314088613850503,
"y": 6.479054375149513
}
},
"time": 2.4944798209655388,
"velocity": 2.893933407587534
},
{
"acceleration": -1.9999999999999891,
"curvature": 0.04278243965367375,
"pose": {
"rotation": {
"radians": 0.059914029541838144
},
"translation": {
"x": 13.395651970808892,
"y": 6.4838112958019005
}
},
"time": 2.5229928996332465,
"velocity": 2.836907250252119
},
{
"acceleration": -1.9999999999999947,
"curvature": 0.049625777657778994,
"pose": {
"rotation": {
"radians": 0.06368989859494495
},
"translation": {
"x": 13.477275858009607,
"y": 6.488858424482737
}
},
"time": 2.5521190233003184,
"velocity": 2.7786550029179753
},
{
"acceleration": -2.0,
"curvature": 0.05691712204521942,
"pose": {
"rotation": {
"radians": 0.06803727439500198
},
"translation": {
"x": 13.558773495420882,
"y": 6.494229865650483
}
},
"time": 2.5818302380367855,
"velocity": 2.7192325734450415
},
{
"acceleration": -2.0000000000000053,
"curvature": 0.06477127720861099,
"pose": {
"rotation": {
"radians": 0.07298462014259885
},
"translation": {
"x": 13.639956882352935,
"y": 6.499959344193247
}
},
"time": 2.612096633377992,
"velocity": 2.658699782762629
},
{
"acceleration": -2.0,
"curvature": 0.07331687087980149,
"pose": {
"rotation": {
"radians": 0.07856564834197534
},
"translation": {
"x": 13.720637898463348,
"y": 6.506080013129912
}
},
"time": 2.642886443032105,
"velocity": 2.5971201634544023
},
{
"acceleration": -2.0000000000000058,
"curvature": 0.082699675983103,
"pose": {
"rotation": {
"radians": 0.08481979500195568
},
"translation": {
"x": 13.800629404762438,
"y": 6.5126242613112435
}
},
"time": 2.6741661581168374,
"velocity": 2.534560733284938
},
{
"acceleration": -2.0000000000000058,
"curvature": 0.09308645989616277,
"pose": {
"rotation": {
"radians": 0.09179275395459884
},
"translation": {
"x": 13.879746344618631,
"y": 6.519623521121012
}
},
"time": 2.7059006581375935,
"velocity": 2.471091733243426
},
{
"acceleration": -1.9999999999999942,
"curvature": 0.10466943159616984,
"pose": {
"rotation": {
"radians": 0.0995370729218805
},
"translation": {
"x": 13.957806844763844,
"y": 6.527108076177102
}
},
"time": 2.738053366131508,
"velocity": 2.4067863172555963
},
{
"acceleration": -2.0,
"curvature": 0.11767134621396531,
"pose": {
"rotation": {
"radians": 0.10811280896490044
},
"translation": {
"x": 14.034633316298855,
"y": 6.535106869032632
}
},
"time": 2.770586435916012,
"velocity": 2.3417201776865886
},
{
"acceleration": -2.0,
"curvature": 0.13235129599028625,
"pose": {
"rotation": {
"radians": 0.11758823491959522
},
"translation": {
"x": 14.11005355569868,
"y": 6.543647308877073
}
},
"time": 2.8034609812690094,
"velocity": 2.2759710869805936
},
{
"acceleration": -2.0,
"curvature": 0.1490111538095958,
"pose": {
"rotation": {
"radians": 0.12804057932904567
},
"translation": {
"x": 14.183901845817946,
"y": 6.5527550792373574
}
},
"time": 2.836637359218451,
"velocity": 2.209618331081711
},
{
"acceleration": -2.000000000000006,
"curvature": 0.16800252041237132,
"pose": {
"rotation": {
"radians": 0.13955676880224557
},
"translation": {
"x": 14.256020056896274,
"y": 6.562453945679001
}
},
"time": 2.8700755225389187,
"velocity": 2.1427420044407754
},
{
"acceleration": -2.000000000000006,
"curvature": 0.18973382857994345,
"pose": {
"rotation": {
"radians": 0.1522341217150373
},
"translation": {
"x": 14.326258747563642,
"y": 6.572765563507217
}
},
"time": 2.903735460171102,
"velocity": 2.0754221291764092
},
{
"acceleration": -1.9999999999999933,
"curvature": 0.2146769318800234,
"pose": {
"rotation": {
"radians": 0.16618091310680308
},
"translation": {
"x": 14.394478265845773,
"y": 6.58370928546803
}
},
"time": 2.9375777487534833,
"velocity": 2.007737552011646
},
{
"acceleration": -2.0,
"curvature": 0.24337198743483102,
"pose": {
"rotation": {
"radians": 0.18151668911488789
},
"translation": {
"x": 14.460549850169503,
"y": 6.595301969449395
}
},
"time": 2.971564243974915,
"velocity": 1.939764561568783
},
{
"acceleration": -2.0000000000000018,
"curvature": 0.2764286441042565,
"pose": {
"rotation": {
"radians": 0.19837215111047193
},
"translation": {
"x": 14.524356730368158,
"y": 6.607557786182312
}
},
"time": 3.005658947258974,
"velocity": 1.8715751550006652
},
{
"acceleration": -2.0,
"curvature": 0.3583669794591065,
"pose": {
"rotation": {
"radians": 0.23721482557037646
},
"translation": {
"x": 14.644775860788242,
"y": 6.634100911248723
}
},
"time": 3.0740431586155985,
"velocity": 1.7348067322874159
},
{
"acceleration": -1.9999999999999978,
"curvature": 0.46618944129816925,
"pose": {
"rotation": {
"radians": 0.28391649367853494
},
"translation": {
"x": 14.755083162106695,
"y": 6.663390976018568
}
},
"time": 3.142535508989773,
"velocity": 1.5978220315390665
},
{
"acceleration": -2.0000000000000013,
"curvature": 0.6043741485432941,
"pose": {
"rotation": {
"radians": 0.3396511357919038
},
"translation": {
"x": 14.854888466172053,
"y": 6.695424994203296
}
},
"time": 3.2110777150620287,
"velocity": 1.4607376193945552
},
{
"acceleration": -1.9999999999999987,
"curvature": 0.7716096786258754,
"pose": {
"rotation": {
"radians": 0.4052002032660874
},
"translation": {
"x": 14.94409916385272,
"y": 6.730138524310206
}
},
"time": 3.279848444285311,
"velocity": 1.3231961609479899
},
{
"acceleration": -2.0,
"curvature": 0.9520143871830765,
"pose": {
"rotation": {
"radians": 0.4802747388929778
},
"translation": {
"x": 15.022955437208996,
"y": 6.767399516078159
}
},
"time": 3.3494197849578233,
"velocity": 1.1840534796029654
},
{
"acceleration": -2.0,
"curvature": 1.103473862463301,
"pose": {
"rotation": {
"radians": 0.5624727407138683
},
"translation": {
"x": 15.092065491665071,
"y": 6.807002156913289
}
},
"time": 3.4210208728817384,
"velocity": 1.0408513037551352
},
{
"acceleration": -2.0,
"curvature": 1.152322304993932,
"pose": {
"rotation": {
"radians": 0.6461076799875033
},
"translation": {
"x": 15.152440788181057,
"y": 6.848660718324714
}
},
"time": 3.4970478265671217,
"velocity": 0.8887973963843687
},
{
"acceleration": -2.0,
"curvature": 1.010693668808647,
"pose": {
"rotation": {
"radians": 0.7216071657785261
},
"translation": {
"x": 15.20553127542497,
"y": 6.892003402360244
}
},
"time": 3.582344634005913,
"velocity": 0.718203781506786
},
{
"acceleration": -2.0,
"curvature": 0.6206374050652157,
"pose": {
"rotation": {
"radians": 0.7763508945657782
},
"translation": {
"x": 15.253260621944786,
"y": 6.9365661880420895
}
},
"time": 3.6891463567213405,
"velocity": 0.5046003360759312
},
{
"acceleration": -2.0,
"curvature": 4.7455320544080765e-14,
"pose": {
"rotation": {
"radians": 0.7971623265472324
},
"translation": {
"x": 15.298061448340396,
"y": 6.98178667780258
}
},
"time": 3.9414465247593062,
"velocity": 0.0
}
]